Time to next new nuclear-weapon state
…
(nYrs <- currentYear - firstYear)

## [1] 74

firstTests <- ts(rep(0, nYrs), firstYear+1)
firstTstYrSinceFirst <- firstTstYr - firstYear
firstTests[firstTstYrSinceFirst] <- 1

library(tibble)
#(FirstTsts <- tibble(Year=time(firstTests), 
#      nFirstTests=as.numeric(firstTests)))
(FirstTsts <- tibble(Year=time(firstTests), 
      nFirstTests=firstTests))

## # A tibble: 74 x 2
##     Year nFirstTests
##    <dbl>       <dbl>
##  1  1946           0
##  2  1947           0
##  3  1948           0
##  4  1949           1
##  5  1950           0
##  6  1951           0
##  7  1952           1
##  8  1953           0
##  9  1954           0
## 10  1955           0
## #  with 64 more rows
…
